<?xml version="1.0" standalone="no"?>
<!DOCTYPE svg PUBLIC "-//W3C//DTD SVG 20010904//EN"
 "http://www.w3.org/TR/2001/REC-SVG-20010904/DTD/svg10.dtd">
<svg version="1.0" xmlns="http://www.w3.org/2000/svg"
 width="1280.000000pt" height="480.000000pt" viewBox="0 0 1280.000000 480.000000"
 preserveAspectRatio="xMidYMid meet">
<g transform="translate(0.000000,480.000000) scale(0.100000,-0.100000)"
fill="#000000" stroke="none">
<path d="M12345 2929 c-6 -81 -11 -105 -27 -121 -19 -19 -36 -19 -708 -16
-655 3 -690 4 -703 21 -12 17 -19 18 -72 8 -41 -8 -939 -11 -3055 -11 -2153 0
-2999 -3 -3007 -11 -8 -8 -17 -8 -32 0 -15 8 -27 9 -41 1 -14 -8 -25 -7 -39 2
-15 9 -23 9 -34 0 -11 -10 -21 -10 -40 -1 -59 27 -58 33 -55 -358 l3 -358 63
1 c35 1 69 7 75 13 7 7 18 4 35 -10 22 -17 27 -18 41 -5 10 9 22 11 31 6 27
-15 107 -23 114 -11 9 14 73 15 81 1 4 -7 12 -7 25 0 24 13 97 13 105 0 4 -7
12 -7 25 0 24 13 66 13 90 0 12 -6 21 -6 25 -1 7 13 196 10 217 -3 12 -7 27
-7 51 2 41 15 74 15 82 2 4 -6 13 -7 23 -1 22 12 220 12 228 0 3 -5 13 -5 24
1 25 13 93 13 107 -1 8 -8 13 -8 17 0 9 14 73 14 81 1 8 -13 62 -13 70 0 8 13
61 13 85 0 13 -7 21 -7 25 0 8 13 98 13 112 -1 8 -8 13 -8 17 0 9 14 71 14 96
1 13 -7 21 -7 25 0 8 13 92 13 100 0 4 -7 12 -7 25 0 24 13 77 13 85 0 8 -13
52 -13 60 0 8 13 62 13 70 0 4 -7 12 -7 25 0 26 14 93 13 108 -2 9 -9 15 -9
24 0 15 15 84 16 93 2 4 -7 12 -7 25 0 25 13 93 13 107 -1 8 -8 13 -8 17 0 9
15 51 14 93 -1 27 -10 38 -10 53 0 24 15 55 15 80 2 12 -6 21 -7 25 -1 7 12
204 12 227 0 10 -6 19 -5 23 1 8 13 81 13 105 0 13 -7 21 -7 25 0 8 13 72 13
80 0 8 -13 62 -13 70 0 8 13 51 13 75 0 13 -7 21 -7 25 0 8 13 98 13 112 -1 8
-8 13 -8 17 0 9 14 71 14 96 1 13 -7 21 -7 25 0 3 5 26 10 50 10 24 0 47 -5
50 -10 4 -7 12 -7 25 0 24 13 77 13 85 0 8 -13 52 -13 60 0 8 13 72 13 80 0 4
-6 13 -7 23 -1 22 12 220 12 228 0 3 -5 13 -5 24 1 25 13 93 13 107 -1 8 -8
13 -8 17 0 9 15 51 14 93 -1 27 -10 38 -10 53 0 24 15 82 16 97 1 8 -8 13 -8
17 0 9 14 103 15 111 1 4 -7 12 -7 25 0 24 13 66 13 90 0 11 -6 21 -6 24 -1 8
12 205 11 212 0 7 -12 51 -11 59 1 9 14 920 2 959 -13 26 -9 31 -8 44 11 l14
22 683 0 c812 0 729 16 740 -145 l7 -106 27 3 c26 3 26 4 32 103 4 55 7 273 7
485 0 212 -3 430 -7 485 -6 99 -6 100 -32 103 l-27 3 -7 -102z"/>
<path d="M3560 2726 c0 -2 -9 -48 -20 -101 -34 -163 -25 -297 33 -482 18 -61
26 -73 43 -73 12 0 24 6 27 13 3 7 5 93 6 190 l2 177 -25 0 c-31 0 -36 -19
-36 -152 0 -59 -4 -109 -9 -112 -15 -10 -24 177 -18 367 3 97 4 177 1 177 -2
0 -4 -2 -4 -4z"/>
<path d="M4315 2660 c-8 -13 20 -24 36 -15 8 6 7 10 -2 16 -18 11 -26 11 -34
-1z"/>
<path d="M3417 2623 c-15 -15 -43 -19 -185 -24 -197 -8 -378 -24 -430 -39 -20
-5 -53 -10 -74 -10 -31 0 -43 -7 -78 -47 l-42 -48 -1106 -5 -1107 -5 1113 -3
c611 -1 1112 -6 1112 -10 0 -5 16 -27 35 -49 39 -46 29 -43 265 -62 63 -4 128
-13 143 -20 17 -6 89 -11 176 -11 132 0 151 -2 173 -20 l25 -19 9 67 c10 84 9
178 -2 260 -9 60 -10 62 -27 45z"/>
<path d="M4227 2443 c-3 -5 -7 -89 -8 -188 l-4 -180 28 -3 c15 -2 27 0 27 5 0
4 2 85 4 178 1 94 1 176 -2 183 -5 13 -38 17 -45 5z"/>
<path d="M3736 2137 c-8 -49 -3 -68 13 -51 5 5 6 29 2 54 l-7 45 -8 -48z"/>
<path d="M3867 2136 c-7 -50 -3 -67 12 -50 5 5 6 29 2 54 l-7 45 -7 -49z"/>
<path d="M3984 2140 c-6 -25 -7 -49 -3 -54 15 -17 20 0 17 50 l-3 49 -11 -45z"/>
<path d="M4488 2135 c-7 -53 -4 -65 12 -49 6 6 7 28 2 54 l-8 45 -6 -50z"/>
<path d="M4108 2135 c-3 -22 -2 -44 3 -49 16 -18 22 4 12 46 l-9 43 -6 -40z"/>
<path d="M4357 2132 c-8 -46 0 -75 13 -51 4 8 5 32 1 54 l-7 40 -7 -43z"/>
</g>
</svg>
